{
    "HELLO":{
       "prefix":"/hello",
       "methods":[
          "GET"
       ],
       "routes":{

       }
    },
    "LOGIN":{
       "prefix":"/app/login",
       "methods":[
          "POST"
       ],
       "routes":{

       }
    },
    "TASK":{
       "prefix":"/task",
       "methods":[
          "PUT"
       ],
       "routes":{
          "available":{
             "prefix":"/available",
             "methods":[
                "GET"
             ]
          }
       }
    }
 }